Causal Inference@Kobe - 方法論特殊講義III
…
参考) Bryan, Christopher J., Elizabeth Tipton and David S. Yeager. 2021. “Behavioural science is unlikely to change the world without a heterogeneity revolution,” Nature Human Behaviour. 5: 980–989.

因果効果の不均一性

intro_data2.csvの例

data2 <- read_csv("data/intro_data2.csv")

data2 <- data2 |>
  rename(Treatment = T, Female = F)

data2

# A tibble: 500 × 4
      ID      Y Treatment Female
   <dbl>  <dbl>     <dbl>  <dbl>
 1     1 1.09           0      1
 2     2 0.0281         0      1
 3     3 1.65           0      0
 4     4 3.83           1      1
 5     5 2.65           1      1
 6     6 1.24           1      1
 7     7 0.136          1      0
 8     8 0.507          0      1
 9     9 2.99           1      1
10    10 4.34           1      1
11    11 0.436          0      0
12    12 0.696          1      0
13    13 0.855          0      0
14    14 0.616          1      0
15    15 0.420          0      1
# ℹ 485 more rows
…
