Causal Inference@Kobe - 差分の差分法
…
　本日の実習に必要なパッケージとデータを読み込む。

pacman::p_load(tidyverse,     # Rの必須パッケージ
               summarytools,  # 記述統計
               modelsummary,  # 推定結果の要約
               estimatr,      # ロバストな回帰分析
               gsynth,        # 一般化SCM
               CausalImpact)  # CausalImpactの実装

did_df <- read_csv("data/did_data5.csv")

did_df

# A tibble: 18,749 × 14
   county state  year shooting fatal_s…¹ non_f…² turnout demvote popul…³ non_w…⁴
    <dbl> <chr> <dbl>    <dbl>     <dbl>   <dbl>   <dbl>   <dbl>   <dbl>   <dbl>
 1   1001 01     1996        0         0       0    56.1    32.5   40207   0.190
 2   1001 01     2000        0         0       0    56.8    28.7   44021   0.189
 3   1001 01     2004        0         0       0    60.2    23.7   48366   0.196
 4   1001 01     2008        0         0       0    64.1    25.8   53277   0.205
 5   1001 01     2012        0         0       0    61.0    26.5   55027   0.212
 6   1001 01     2016        0         0       0    60.7    24.0   55416   0.228
 7   1003 01     1996        0         0       0    51.8    27.1  125412   0.123
 8   1003 01     2000        0         0       0    54.6    24.8  141342   0.122
 9   1003 01     2004        0         0       0    59.8    22.5  156266   0.122
10   1003 01     2008        0         0       0    62.4    23.8  175827   0.122
# … with 18,739 more rows, 4 more variables: change_unem_rate <dbl>,
#   county_f <dbl>, state_f <chr>, year_f <dbl>, and abbreviated variable names
#   ¹​fatal_shooting, ²​non_fatal_shooting, ³​population, ⁴​non_white
# ℹ Use `print(n = ...)` to see more rows, and `colnames()` to see all variable names

　データの詳細はスライドを参照すること。DID推定には時間（年）とカウンティー（郡）の固定効果を投入し、州レベルでクラスタリングした標準誤差を使う予定である。これらの変数を予めfactor化しておこう。factor化した変数は変数名の後ろに_fを付けて、新しい列として追加しておく。

did_df <- did_df |>
  mutate(county_f = factor(county),
         state_f  = factor(state),
         year_f   = factor(year))

did_df

# A tibble: 18,749 × 14
   county state  year shooting fatal_s…¹ non_f…² turnout demvote popul…³ non_w…⁴
    <dbl> <chr> <dbl>    <dbl>     <dbl>   <dbl>   <dbl>   <dbl>   <dbl>   <dbl>
 1   1001 01     1996        0         0       0    56.1    32.5   40207   0.190
 2   1001 01     2000        0         0       0    56.8    28.7   44021   0.189
 3   1001 01     2004        0         0       0    60.2    23.7   48366   0.196
 4   1001 01     2008        0         0       0    64.1    25.8   53277   0.205
 5   1001 01     2012        0         0       0    61.0    26.5   55027   0.212
 6   1001 01     2016        0         0       0    60.7    24.0   55416   0.228
 7   1003 01     1996        0         0       0    51.8    27.1  125412   0.123
 8   1003 01     2000        0         0       0    54.6    24.8  141342   0.122
 9   1003 01     2004        0         0       0    59.8    22.5  156266   0.122
10   1003 01     2008        0         0       0    62.4    23.8  175827   0.122
# … with 18,739 more rows, 4 more variables: change_unem_rate <dbl>,
#   county_f <fct>, state_f <fct>, year_f <fct>, and abbreviated variable names
#   ¹​fatal_shooting, ²​non_fatal_shooting, ³​population, ⁴​non_white
# ℹ Use `print(n = ...)` to see more rows, and `colnames()` to see all variable names
…
SCM

scm_df <- read_csv("data/did_data6.csv")

scm_df

# A tibble: 891 × 9
   Election PrefCode PrefName_E PrefNam…¹ Eligi…² Voters EffVote Magni…³ Candi…⁴
      <dbl>    <dbl> <chr>      <chr>       <dbl>  <dbl>   <dbl>   <dbl>   <dbl>
 1        7        1 Hokkaido   北海道    2903802 1.83e6 1683764       4       7
 2        7        2 Aomori     青森県     823336 5.09e5  478380       1       5
 3        7        3 Iwate      岩手県     849109 6.20e5  591977       1       3
 4        7        4 Miyagi     宮城県    1049109 6.95e5  666205       1       4
 5        7        5 Akita      秋田県     771983 5.91e5  558603       1       3
 6        7        6 Yamagata   山形県     784438 6.37e5  615414       1       3
 7        7        7 Fukushima  福島県    1123975 8.93e5  855609       2       5
 8        7        8 Ibaraki    茨城県    1246254 7.85e5  750181       2       4
 9        7        9 Tochigi    栃木県     909245 6.38e5  614249       2       6
10        7       10 Gunma      群馬県     990083 7.20e5  690448       2       6
# … with 881 more rows, and abbreviated variable names ¹​PrefName_J, ²​Eligible,
#   ³​Magnitude, ⁴​Candidates
# ℹ Use `print(n = ...)` to see more rows
…
