因果推論の考え方とランダム化比較試験 – Causal Inference@Kobe
…
　CRANでなく、GitHub上で公開されているパッケージを使う場合はpacman::p_load_gh()を使用する。()の中には"ユーザー名/リポジトリ名"を入力する。たとえば、{BalanceR}の作成者のGitHubアカウント名はJaehyunSongであり、{BalanceR}のリポジトリ名はBalanceRだから、以下のように入力する。p_load()とは違って、文字列は"で囲む必要があることに注意しよう。

pacman::p_load_gh("JaehyunSong/BalanceR")

データの読み込み

　.csv形式のデータを読み込むにはread_csv()関数を使用する3。()内には読み込むファイルのパスを"で囲んで記入する。read_csv()関数はファイルの読み込みのみの機能しか持たない。現在の作業環境内に読み込んだデータを格納するためには代入演算子<-を使う。ここではdataフォルダー内のintro_data3.csvを読み込み、raw_dfという名のオブジェクトとしてく格納する。作業環境内のオブジェクトはRを再起動すると削除されるため、改めてパッケージ・データの読み込みが必要だ。

raw_df <- read_csv("data/intro_data3.csv")

　オブジェクトの中身を出力するためにはオブジェクト名を入力する。

raw_df

# A tibble: 344,084 × 8
   treatment  gender   yob hh_size voted2000 voted2002 voted2004 voted2006
   <chr>      <chr>  <dbl>   <dbl> <chr>     <chr>     <chr>     <chr>    
 1 Civic Duty male    1941       2 no        yes       no        no       
 2 Civic Duty female  1947       2 no        yes       no        no       
 3 Hawthorne  male    1951       3 no        yes       no        yes      
 4 Hawthorne  female  1950       3 no        yes       no        yes      
 5 Hawthorne  female  1982       3 no        yes       no        yes      
 6 Control    male    1981       3 no        no        no        no       
 7 Control    female  1959       3 no        yes       no        yes      
 8 Control    male    1956       3 no        yes       no        yes      
 9 Control    female  1968       2 no        yes       no        no       
10 Control    male    1967       2 no        yes       no        no       
# ℹ 344,074 more rows
…
　パイプ演算子には{magrittr}パッケージが提供する%>%とR 4.1から提供されるネイティブパイプ演算子の|>がある。現在の主流は古くから使われてきた%>%であるが、今後、|>が主流になると考えられるため、本講義では|>を使用する。しかし、多くの場合、|>の代わりに%>%を使っても同じ結果が得られる。

パイプ演算子のショートカットキー

　Rのnativeパイプ演算子（|>）は意外と打ちにくい。ショートカットキーを活用しよう。

macOS：Cmd（⌘） + Shift + m

Windows：Ctrl（Control） + Shift + m

　パイプ演算子はパイプ前のオブジェクトを、パイプ後の関数の第一引数として渡す単純な演算子だ。たとえば、列名を変更する関数はrename()であるが、使い方はrenames(データ名, 新しい列名 = 既存の列名, ...)である。raw_dfのgender列の名前をfemaleに変更する場合は以下のように書く。

rename(raw_df, female = gender)

# A tibble: 344,084 × 8
   treatment  female   yob hh_size voted2000 voted2002 voted2004 voted2006
   <chr>      <chr>  <dbl>   <dbl> <chr>     <chr>     <chr>     <chr>    
 1 Civic Duty male    1941       2 no        yes       no        no       
 2 Civic Duty female  1947       2 no        yes       no        no       
 3 Hawthorne  male    1951       3 no        yes       no        yes      
 4 Hawthorne  female  1950       3 no        yes       no        yes      
 5 Hawthorne  female  1982       3 no        yes       no        yes      
 6 Control    male    1981       3 no        no        no        no       
 7 Control    female  1959       3 no        yes       no        yes      
 8 Control    male    1956       3 no        yes       no        yes      
 9 Control    female  1968       2 no        yes       no        no       
10 Control    male    1967       2 no        yes       no        no       
# ℹ 344,074 more rows

　ここで第1引数がraw_dfだが、パイプ演算子を使うと以下のようになり、人間にとって読みやすいコードになる。

raw_df |>
  rename(female = gender)

# A tibble: 344,084 × 8
   treatment  female   yob hh_size voted2000 voted2002 voted2004 voted2006
   <chr>      <chr>  <dbl>   <dbl> <chr>     <chr>     <chr>     <chr>    
 1 Civic Duty male    1941       2 no        yes       no        no       
 2 Civic Duty female  1947       2 no        yes       no        no       
 3 Hawthorne  male    1951       3 no        yes       no        yes      
 4 Hawthorne  female  1950       3 no        yes       no        yes      
 5 Hawthorne  female  1982       3 no        yes       no        yes      
 6 Control    male    1981       3 no        no        no        no       
 7 Control    female  1959       3 no        yes       no        yes      
 8 Control    male    1956       3 no        yes       no        yes      
 9 Control    female  1968       2 no        yes       no        no       
10 Control    male    1967       2 no        yes       no        no       
# ℹ 344,074 more rows

　要するに、X |> Yは「X（の結果）を使ってYを行う」ことを意味する。より詳しいパイプ演算子の解説は『私たちのR』の「データハンドリング [抽出]」を参照されたい。

　続いて、変数のリコーディングをしてみよう。xの値が"A"なら1、それ以外は0のように、戻り値が2種類の場合、if_else()関数でリコーディングする。書き方は以下の通りだ。

if_else(条件式, 条件が満たされる場合の戻り値, 条件が満たされない場合の戻り値)

　たとえば、raw_dfのgender列の値が"female"なら1、それ以外なら0とし、その結果をfemale列として追加するコードは以下の通り。同値を意味する演算子が=でなく、==であることに注意すること（=は<-と同じ代入演算子であるが、Rでは代入演算子として=より<-の使用を推奨している）。

mutate(raw_df, 
       female = if_else(gender == "female", 1, 0))

# A tibble: 344,084 × 9
   treatment gender   yob hh_size voted2000 voted2002 voted2004 voted2006 female
   <chr>     <chr>  <dbl>   <dbl> <chr>     <chr>     <chr>     <chr>      <dbl>
 1 Civic Du… male    1941       2 no        yes       no        no             0
 2 Civic Du… female  1947       2 no        yes       no        no             1
 3 Hawthorne male    1951       3 no        yes       no        yes            0
 4 Hawthorne female  1950       3 no        yes       no        yes            1
 5 Hawthorne female  1982       3 no        yes       no        yes            1
 6 Control   male    1981       3 no        no        no        no             0
 7 Control   female  1959       3 no        yes       no        yes            1
 8 Control   male    1956       3 no        yes       no        yes            0
 9 Control   female  1968       2 no        yes       no        no             1
10 Control   male    1967       2 no        yes       no        no             0
# ℹ 344,074 more rows

　mutate()は指定された列に対して何らかの処理を行い、その結果を新しい列として追加するか、上書きする関数である。このmutate()関数の第1引数もデータであるため、以下のようにパイプ演算子を使うこともできる。

raw_df |>
  mutate(female = if_else(gender == "female", 1, 0))

# A tibble: 344,084 × 9
   treatment gender   yob hh_size voted2000 voted2002 voted2004 voted2006 female
   <chr>     <chr>  <dbl>   <dbl> <chr>     <chr>     <chr>     <chr>      <dbl>
 1 Civic Du… male    1941       2 no        yes       no        no             0
 2 Civic Du… female  1947       2 no        yes       no        no             1
 3 Hawthorne male    1951       3 no        yes       no        yes            0
 4 Hawthorne female  1950       3 no        yes       no        yes            1
 5 Hawthorne female  1982       3 no        yes       no        yes            1
 6 Control   male    1981       3 no        no        no        no             0
 7 Control   female  1959       3 no        yes       no        yes            1
 8 Control   male    1956       3 no        yes       no        yes            0
 9 Control   female  1968       2 no        yes       no        no             1
10 Control   male    1967       2 no        yes       no        no             0
# ℹ 344,074 more rows

　また、mutate()内には複数のコードを書くこともできる。voted2000列からvoted2006列までそれぞれの値が"yes"であれば、1を、それ以外の場合は0にリコーディングしてみよう。

raw_df |>
  mutate(female    = if_else(gender    == "female", 1, 0),
         voted2000 = if_else(voted2000 == "yes", 1, 0),
         voted2002 = if_else(voted2002 == "yes", 1, 0),
         voted2004 = if_else(voted2004 == "yes", 1, 0),
         voted2006 = if_else(voted2006 == "yes", 1, 0))

# A tibble: 344,084 × 9
   treatment gender   yob hh_size voted2000 voted2002 voted2004 voted2006 female
   <chr>     <chr>  <dbl>   <dbl>     <dbl>     <dbl>     <dbl>     <dbl>  <dbl>
 1 Civic Du… male    1941       2         0         1         0         0      0
 2 Civic Du… female  1947       2         0         1         0         0      1
 3 Hawthorne male    1951       3         0         1         0         1      0
 4 Hawthorne female  1950       3         0         1         0         1      1
 5 Hawthorne female  1982       3         0         1         0         1      1
 6 Control   male    1981       3         0         0         0         0      0
 7 Control   female  1959       3         0         1         0         1      1
 8 Control   male    1956       3         0         1         0         1      0
 9 Control   female  1968       2         0         1         0         0      1
10 Control   male    1967       2         0         1         0         0      0
# ℹ 344,074 more rows

　また、パイプ演算子は2つ以上使うこともできる。たとえば、rename()を使ってgender列をfemaleに変更し、mutate()でリコーディングを行う場合、以下のように書く。これはraw_dfを使ってrename()の処理を行い、その結果をmutate()関数のデータとして渡すことを意味する。

raw_df |>
  rename(female = gender) |>
  mutate(female    = if_else(female    == "female", 1, 0),
         voted2000 = if_else(voted2000 == "yes", 1, 0),
         voted2002 = if_else(voted2002 == "yes", 1, 0),
         voted2004 = if_else(voted2004 == "yes", 1, 0),
         voted2006 = if_else(voted2006 == "yes", 1, 0))

# A tibble: 344,084 × 8
   treatment  female   yob hh_size voted2000 voted2002 voted2004 voted2006
   <chr>       <dbl> <dbl>   <dbl>     <dbl>     <dbl>     <dbl>     <dbl>
 1 Civic Duty      0  1941       2         0         1         0         0
 2 Civic Duty      1  1947       2         0         1         0         0
 3 Hawthorne       0  1951       3         0         1         0         1
 4 Hawthorne       1  1950       3         0         1         0         1
 5 Hawthorne       1  1982       3         0         1         0         1
 6 Control         0  1981       3         0         0         0         0
 7 Control         1  1959       3         0         1         0         1
 8 Control         0  1956       3         0         1         0         1
 9 Control         1  1968       2         0         1         0         0
10 Control         0  1967       2         0         1         0         0
# ℹ 344,074 more rows

　以上のコードはデータを加工し、その結果を出力するだけであって、その結果を保存しない。もう一度raw_dfを出力してみても、これまでのデータ加工内容は反映されていないことが分かる。

raw_df

# A tibble: 344,084 × 8
   treatment  gender   yob hh_size voted2000 voted2002 voted2004 voted2006
   <chr>      <chr>  <dbl>   <dbl> <chr>     <chr>     <chr>     <chr>    
 1 Civic Duty male    1941       2 no        yes       no        no       
 2 Civic Duty female  1947       2 no        yes       no        no       
 3 Hawthorne  male    1951       3 no        yes       no        yes      
 4 Hawthorne  female  1950       3 no        yes       no        yes      
 5 Hawthorne  female  1982       3 no        yes       no        yes      
 6 Control    male    1981       3 no        no        no        no       
 7 Control    female  1959       3 no        yes       no        yes      
 8 Control    male    1956       3 no        yes       no        yes      
 9 Control    female  1968       2 no        yes       no        no       
10 Control    male    1967       2 no        yes       no        no       
# ℹ 344,074 more rows

　このように頑張ってデータを加工したもののその結果が全く反映されていない。加工したデータを引き続き使っていくためには、加工結果を作業環境内に保存する必要がある。作業環境内にオブジェクトを保存するためには代入演算子（<-）を使い、名前を付けて作業空間内に保存する（ファイルとして保存されるわけではない）必要がある。今回は加工の結果をdfという名で保存する。raw_dfに上書きしても問題はないが、生データはとりあえず作業空間内に残しておくことを推奨する（Rに慣れれば上書きしても良い）。

df <- raw_df |>
  rename(female = gender) |>
  mutate(female    = if_else(female    == "female", 1, 0),
         voted2000 = if_else(voted2000 == "yes", 1, 0),
         voted2002 = if_else(voted2002 == "yes", 1, 0),
         voted2004 = if_else(voted2004 == "yes", 1, 0),
         voted2006 = if_else(voted2006 == "yes", 1, 0))

df

# A tibble: 344,084 × 8
   treatment  female   yob hh_size voted2000 voted2002 voted2004 voted2006
   <chr>       <dbl> <dbl>   <dbl>     <dbl>     <dbl>     <dbl>     <dbl>
 1 Civic Duty      0  1941       2         0         1         0         0
 2 Civic Duty      1  1947       2         0         1         0         0
 3 Hawthorne       0  1951       3         0         1         0         1
 4 Hawthorne       1  1950       3         0         1         0         1
 5 Hawthorne       1  1982       3         0         1         0         1
 6 Control         0  1981       3         0         0         0         0
 7 Control         1  1959       3         0         1         0         1
 8 Control         0  1956       3         0         1         0         1
 9 Control         1  1968       2         0         1         0         0
10 Control         0  1967       2         0         1         0         0
# ℹ 344,074 more rows
…
　ただし、descr()を使うと数値型（numeric）変数の記述統計量のみ表示される。dfだと、treatment列は文字型（character）であるため、表示されない4。各グループがサンプルの何割かを計算するためには、treatment変数をダミー変数へ変換する必要がある。ダミー変数の作成は面倒な作業であるが、{fastDummies}パッケージのdummy_cols()を使えば簡単にできる。dummy_cols()の中にはselect_columns = "ダミー化する列名"を入れれば、当該変数をダミー変数へ変換し、新しい列として追加してくれる。それではtreatment列をダミー化&追加し、その結果をdfに上書きしてみよう。

df <- df |>
  dummy_cols(select_columns = "treatment")

df

# A tibble: 344,084 × 13
   treatment  female   yob hh_size voted2000 voted2002 voted2004 voted2006
   <chr>       <dbl> <dbl>   <dbl>     <dbl>     <dbl>     <dbl>     <dbl>
 1 Civic Duty      0  1941       2         0         1         0         0
 2 Civic Duty      1  1947       2         0         1         0         0
 3 Hawthorne       0  1951       3         0         1         0         1
 4 Hawthorne       1  1950       3         0         1         0         1
 5 Hawthorne       1  1982       3         0         1         0         1
 6 Control         0  1981       3         0         0         0         0
 7 Control         1  1959       3         0         1         0         1
 8 Control         0  1956       3         0         1         0         1
 9 Control         1  1968       2         0         1         0         0
10 Control         0  1967       2         0         1         0         0
# ℹ 344,074 more rows
# ℹ 5 more variables: `treatment_Civic Duty` <int>, treatment_Control <int>,
#   treatment_Hawthorne <int>, treatment_Neighbors <int>, treatment_Self <int>

　画面には表示されないが、出力結果の下段を見るとtreatment_で始まるいくつかの変数が追加されたことが分かる。ここでは"tretmant"で始まる列のみを抽出つして確認してみよう。

df |>
  select(starts_with("treatment"))

# A tibble: 344,084 × 6
   treatment  `treatment_Civic Duty` treatment_Control treatment_Hawthorne
   <chr>                       <int>             <int>               <int>
 1 Civic Duty                      1                 0                   0
 2 Civic Duty                      1                 0                   0
 3 Hawthorne                       0                 0                   1
 4 Hawthorne                       0                 0                   1
 5 Hawthorne                       0                 0                   1
 6 Control                         0                 1                   0
 7 Control                         0                 1                   0
 8 Control                         0                 1                   0
 9 Control                         0                 1                   0
10 Control                         0                 1                   0
# ℹ 344,074 more rows
# ℹ 2 more variables: treatment_Neighbors <int>, treatment_Self <int>
…
　ここで一つ注目したいのが、グループの表示順番である。変数のデータ型が文字型だと（Rコンソール上でclass(df$treatment)を入力するか、dfの出力画面でtreatmentの下に<chr>と表示されていることで確認できる）、今のようにアルファベット順で表示される。しかし、統制群は最初か最後に来るのが通例である。この順番をアルファベット順でなく、任意の順番にするためにはtreatment変数をfactor型変数へ変換する必要がある。Factor型は「順序付きの文字型変数」だと理解しても良い6。列の追加・上書き（今回はtreatment列の上書き）の処理が必要なのでmutate()関数を使う。変数をfactor型に変換する関数はfactor()関数で、第1引数としてはfactor型へ変換する変数名を指定する。第2引数はlevelsであり、出力したい順番の文字型ベクトルを指定する。スペルミスに注意すること。

df |>
  mutate(treatment = factor(treatment,
                            levels = c("Control", "Civic Duty",
                                       "Self", "Neighbors", "Hawthorne")))

# A tibble: 344,084 × 13
   treatment  female   yob hh_size voted2000 voted2002 voted2004 voted2006
   <fct>       <dbl> <dbl>   <dbl>     <dbl>     <dbl>     <dbl>     <dbl>
 1 Civic Duty      0  1941       2         0         1         0         0
 2 Civic Duty      1  1947       2         0         1         0         0
 3 Hawthorne       0  1951       3         0         1         0         1
 4 Hawthorne       1  1950       3         0         1         0         1
 5 Hawthorne       1  1982       3         0         1         0         1
 6 Control         0  1981       3         0         0         0         0
 7 Control         1  1959       3         0         1         0         1
 8 Control         0  1956       3         0         1         0         1
 9 Control         1  1968       2         0         1         0         0
10 Control         0  1967       2         0         1         0         0
# ℹ 344,074 more rows
# ℹ 5 more variables: `treatment_Civic Duty` <int>, treatment_Control <int>,
#   treatment_Hawthorne <int>, treatment_Neighbors <int>, treatment_Self <int>
…
