Causal Inference@Kobe - 第1回講義資料
…
データの読み込みと確認

raw_df <- read_csv("data/Day1_Data3.csv")
raw_df

# A tibble: 344,084 × 8
   treatment  gender   yob hh_size voted2000 voted2002 voted2004 voted2006
   <chr>      <chr>  <dbl>   <dbl> <chr>     <chr>     <chr>     <chr>    
 1 Civic Duty male    1941       2 no        yes       no        no       
 2 Civic Duty female  1947       2 no        yes       no        no       
 3 Hawthorne  male    1951       3 no        yes       no        yes      
 4 Hawthorne  female  1950       3 no        yes       no        yes      
 5 Hawthorne  female  1982       3 no        yes       no        yes      
 6 Control    male    1981       3 no        no        no        no       
 7 Control    female  1959       3 no        yes       no        yes      
 8 Control    male    1956       3 no        yes       no        yes      
 9 Control    female  1968       2 no        yes       no        no       
10 Control    male    1967       2 no        yes       no        no       
# … with 344,074 more rows
# ℹ Use `print(n = ...)` to see more rows
…
names(raw_df)

[1] "treatment" "gender"    "yob"       "hh_size"   "voted2000" "voted2002"
[7] "voted2004" "voted2006"

データハンドリングとパイプ演算子

パイプ演算子には{magrittr}パッケージが提供する%>%とR 4.1から提供されるネイティブパイプ演算子の|>がある。現在の主流は古くから使われた%>%であるが、今後、|>が主流になると考えられるため、以下では|>を使用する。しかし、多くの場合、|>の代わりに%>%を使っても同じ結果が得られる。

パイプ演算子はパイプ前のオブジェクトを、パイプ後の関数の第一引数として渡す単純な演算子。たとえば、列名を変更する関数はrename()であるが、使い方はrenames(データ名, 新しい列名 = 既存の列名, ...)である。raw_dfのgender列の名前をfemaleに変更する場合は以下のように書く。

rename(raw_df, female = gender)

# A tibble: 344,084 × 8
   treatment  female   yob hh_size voted2000 voted2002 voted2004 voted2006
   <chr>      <chr>  <dbl>   <dbl> <chr>     <chr>     <chr>     <chr>    
 1 Civic Duty male    1941       2 no        yes       no        no       
 2 Civic Duty female  1947       2 no        yes       no        no       
 3 Hawthorne  male    1951       3 no        yes       no        yes      
 4 Hawthorne  female  1950       3 no        yes       no        yes      
 5 Hawthorne  female  1982       3 no        yes       no        yes      
 6 Control    male    1981       3 no        no        no        no       
 7 Control    female  1959       3 no        yes       no        yes      
 8 Control    male    1956       3 no        yes       no        yes      
 9 Control    female  1968       2 no        yes       no        no       
10 Control    male    1967       2 no        yes       no        no       
# … with 344,074 more rows
# ℹ Use `print(n = ...)` to see more rows

ここで第1引数がraw_dfだが、パイプ演算子を使うと以下のようになり、人間にとって読みやすいコードになる。

raw_df |>
  rename(female = gender)

# A tibble: 344,084 × 8
   treatment  female   yob hh_size voted2000 voted2002 voted2004 voted2006
   <chr>      <chr>  <dbl>   <dbl> <chr>     <chr>     <chr>     <chr>    
 1 Civic Duty male    1941       2 no        yes       no        no       
 2 Civic Duty female  1947       2 no        yes       no        no       
 3 Hawthorne  male    1951       3 no        yes       no        yes      
 4 Hawthorne  female  1950       3 no        yes       no        yes      
 5 Hawthorne  female  1982       3 no        yes       no        yes      
 6 Control    male    1981       3 no        no        no        no       
 7 Control    female  1959       3 no        yes       no        yes      
 8 Control    male    1956       3 no        yes       no        yes      
 9 Control    female  1968       2 no        yes       no        no       
10 Control    male    1967       2 no        yes       no        no       
# … with 344,074 more rows
# ℹ Use `print(n = ...)` to see more rows

要するに、X |> Yは「X（の結果）を使ってYを行う」ことを意味する。

続いて、変数のリコーディング。xの値が"A"なら1、それ以外は0のように、戻り値が2種類の場合のリコーディングにはif_else()を使用する。書き方は以下の通り

if_else(条件式, 条件が満たされる場合の戻り値, 条件が満たされない場合の戻り値)

たとえば、raw_dfのgender列の値が"female"なら1、それ以外なら0とし、その結果をfemale列として追加するコードは以下の通り。同値を意味する演算子が=でなく、==であることに注意すること。

mutate(raw_df, 
       female = if_else(gender == "female", 1, 0))

# A tibble: 344,084 × 9
   treatment  gender   yob hh_size voted2000 voted2002 voted2004 voted2…¹ female
   <chr>      <chr>  <dbl>   <dbl> <chr>     <chr>     <chr>     <chr>     <dbl>
 1 Civic Duty male    1941       2 no        yes       no        no            0
 2 Civic Duty female  1947       2 no        yes       no        no            1
 3 Hawthorne  male    1951       3 no        yes       no        yes           0
 4 Hawthorne  female  1950       3 no        yes       no        yes           1
 5 Hawthorne  female  1982       3 no        yes       no        yes           1
 6 Control    male    1981       3 no        no        no        no            0
 7 Control    female  1959       3 no        yes       no        yes           1
 8 Control    male    1956       3 no        yes       no        yes           0
 9 Control    female  1968       2 no        yes       no        no            1
10 Control    male    1967       2 no        yes       no        no            0
# … with 344,074 more rows, and abbreviated variable name ¹​voted2006
# ℹ Use `print(n = ...)` to see more rows

mutate()は指定された列に対して何らかの処理を行い、その結果を新しい列として追加するか、上書きする関数である。これもパイプ演算子を使えば以下の通り

raw_df |>
  mutate(female = if_else(gender == "female", 1, 0))

# A tibble: 344,084 × 9
   treatment  gender   yob hh_size voted2000 voted2002 voted2004 voted2…¹ female
   <chr>      <chr>  <dbl>   <dbl> <chr>     <chr>     <chr>     <chr>     <dbl>
 1 Civic Duty male    1941       2 no        yes       no        no            0
 2 Civic Duty female  1947       2 no        yes       no        no            1
 3 Hawthorne  male    1951       3 no        yes       no        yes           0
 4 Hawthorne  female  1950       3 no        yes       no        yes           1
 5 Hawthorne  female  1982       3 no        yes       no        yes           1
 6 Control    male    1981       3 no        no        no        no            0
 7 Control    female  1959       3 no        yes       no        yes           1
 8 Control    male    1956       3 no        yes       no        yes           0
 9 Control    female  1968       2 no        yes       no        no            1
10 Control    male    1967       2 no        yes       no        no            0
# … with 344,074 more rows, and abbreviated variable name ¹​voted2006
# ℹ Use `print(n = ...)` to see more rows

mutate()内には複数のコードを書くのも可能

raw_df |>
  mutate(female    = if_else(gender    == "female", 1, 0),
         voted2000 = if_else(voted2000 == "yes", 1, 0),
         voted2002 = if_else(voted2002 == "yes", 1, 0),
         voted2004 = if_else(voted2004 == "yes", 1, 0),
         voted2006 = if_else(voted2006 == "yes", 1, 0))

# A tibble: 344,084 × 9
   treatment  gender   yob hh_size voted2000 voted2002 voted2004 voted2…¹ female
   <chr>      <chr>  <dbl>   <dbl>     <dbl>     <dbl>     <dbl>    <dbl>  <dbl>
 1 Civic Duty male    1941       2         0         1         0        0      0
 2 Civic Duty female  1947       2         0         1         0        0      1
 3 Hawthorne  male    1951       3         0         1         0        1      0
 4 Hawthorne  female  1950       3         0         1         0        1      1
 5 Hawthorne  female  1982       3         0         1         0        1      1
 6 Control    male    1981       3         0         0         0        0      0
 7 Control    female  1959       3         0         1         0        1      1
 8 Control    male    1956       3         0         1         0        1      0
 9 Control    female  1968       2         0         1         0        0      1
10 Control    male    1967       2         0         1         0        0      0
# … with 344,074 more rows, and abbreviated variable name ¹​voted2006
# ℹ Use `print(n = ...)` to see more rows

以下のように複数のパイプでコードを繋ぐこともできる

raw_df |>
  rename(female = gender) |>
  mutate(female    = if_else(female    == "female", 1, 0),
         voted2000 = if_else(voted2000 == "yes", 1, 0),
         voted2002 = if_else(voted2002 == "yes", 1, 0),
         voted2004 = if_else(voted2004 == "yes", 1, 0),
         voted2006 = if_else(voted2006 == "yes", 1, 0))

# A tibble: 344,084 × 8
   treatment  female   yob hh_size voted2000 voted2002 voted2004 voted2006
   <chr>       <dbl> <dbl>   <dbl>     <dbl>     <dbl>     <dbl>     <dbl>
 1 Civic Duty      0  1941       2         0         1         0         0
 2 Civic Duty      1  1947       2         0         1         0         0
 3 Hawthorne       0  1951       3         0         1         0         1
 4 Hawthorne       1  1950       3         0         1         0         1
 5 Hawthorne       1  1982       3         0         1         0         1
 6 Control         0  1981       3         0         0         0         0
 7 Control         1  1959       3         0         1         0         1
 8 Control         0  1956       3         0         1         0         1
 9 Control         1  1968       2         0         1         0         0
10 Control         0  1967       2         0         1         0         0
# … with 344,074 more rows
# ℹ Use `print(n = ...)` to see more rows

以上のコードはデータを加工し、その結果を出力するだけであって、その結果を保存しない。

raw_df

# A tibble: 344,084 × 8
   treatment  gender   yob hh_size voted2000 voted2002 voted2004 voted2006
   <chr>      <chr>  <dbl>   <dbl> <chr>     <chr>     <chr>     <chr>    
 1 Civic Duty male    1941       2 no        yes       no        no       
 2 Civic Duty female  1947       2 no        yes       no        no       
 3 Hawthorne  male    1951       3 no        yes       no        yes      
 4 Hawthorne  female  1950       3 no        yes       no        yes      
 5 Hawthorne  female  1982       3 no        yes       no        yes      
 6 Control    male    1981       3 no        no        no        no       
 7 Control    female  1959       3 no        yes       no        yes      
 8 Control    male    1956       3 no        yes       no        yes      
 9 Control    female  1968       2 no        yes       no        no       
10 Control    male    1967       2 no        yes       no        no       
# … with 344,074 more rows
# ℹ Use `print(n = ...)` to see more rows

結果を保存するためには代入演算子（<-）を使い、名前を付けて作業空間内に保存する（ファイルとして保存されるわけではない）。今回は架空の結果をdfという名で保存する。raw_dfに上書きしても問題はないが、生データはとりあえず作業空間内に残しておくことを推奨（Rに慣れれば上書きしても良い）。

df <- raw_df |>
  rename(female = gender) |>
  mutate(female    = if_else(female    == "female", 1, 0),
         voted2000 = if_else(voted2000 == "yes", 1, 0),
         voted2002 = if_else(voted2002 == "yes", 1, 0),
         voted2004 = if_else(voted2004 == "yes", 1, 0),
         voted2006 = if_else(voted2006 == "yes", 1, 0))

df

# A tibble: 344,084 × 8
   treatment  female   yob hh_size voted2000 voted2002 voted2004 voted2006
   <chr>       <dbl> <dbl>   <dbl>     <dbl>     <dbl>     <dbl>     <dbl>
 1 Civic Duty      0  1941       2         0         1         0         0
 2 Civic Duty      1  1947       2         0         1         0         0
 3 Hawthorne       0  1951       3         0         1         0         1
 4 Hawthorne       1  1950       3         0         1         0         1
 5 Hawthorne       1  1982       3         0         1         0         1
 6 Control         0  1981       3         0         0         0         0
 7 Control         1  1959       3         0         1         0         1
 8 Control         0  1956       3         0         1         0         1
 9 Control         1  1968       2         0         1         0         0
10 Control         0  1967       2         0         1         0         0
# … with 344,074 more rows
# ℹ Use `print(n = ...)` to see more rows
…
