Causal Inference@Kobe - 回帰不連続デザイン
…
スライド

実習に必要なパッケージとデータセットを読み込む。

pacman::p_load(tidyverse, rdd, rdrobust, rddensity, 
               summarytools, BalanceR)

df <- read_csv("data/rdd_data4.csv")

df

# A tibble: 1,266 × 7
    year prefname outcome      rv total_cand en_cand total_votes
   <dbl> <chr>      <dbl>   <dbl>      <dbl>   <dbl>       <dbl>
 1  2000 Hokkaido    34.6 -10.8            4    2.75      261382
 2  2003 Hokkaido    40.8 -10.4            3    2.29      259740
 3  2005 Hokkaido    36.8  -2.45           4    2.60      313909
 4  2009 Hokkaido    31.1  -8.72           4    2.29      337445
 5  2012 Hokkaido    39.6   1.09           5    4.17      276894
 6  2000 Hokkaido    35.3   2.52           6    4.19      244655
 7  2003 Hokkaido    44.5  -5.13           5    2.86      236430
 8  2005 Hokkaido    30.8  -0.407          3    2.42      285519
 9  2009 Hokkaido    35.0 -11.7            5    2.50      304810
10  2012 Hokkaido    38.8   5.87           5    4.17      239023
# … with 1,256 more rows
# ℹ Use `print(n = ...)` to see more rows
…
